8 dplyr | Tidy evaluation
…
function(.data, .summary_var, ...)

Because of the magic of dots forwarding we don’t have to use the quote-and-unquote pattern. We can just pass ... to other quoting functions like group_by():

grouped_mean <- function(.data, .summary_var, ...) {
  summary_var <- enquo(.summary_var)

  .data %>%
    group_by(...) %>%  # Forward `...`
    summarise(mean = mean(!!summary_var))
}

grouped_mean(mtcars, disp, cyl, am)
#> # A tibble: 6 x 3
#> # Groups:   cyl [3]
#>     cyl    am  mean
#>   <dbl> <dbl> <dbl>
#> 1     4     0 136. 
#> 2     4     1  93.6
#> 3     6     0 205. 
#> 4     6     1 155  
#> 5     8     0 358. 
#> # … with 1 more row
…
Unquoting multiple arguments requires a variant of !!, the unquote-splice operator !!! which unquotes each element of a list as an independent argument in the surrounding function call.

Quote the dots with enquos() and unquote-splice them with !!!:

grouped_mean2 <- function(.data, .summary_var, ...) {
  summary_var <- enquo(.summary_var)
  group_vars <- enquos(...)  # Get a list of quoted dots

  .data %>%
    group_by(!!!group_vars) %>%  # Unquote-splice the list
    summarise(mean = mean(!!summary_var))
}

grouped_mean2(mtcars, disp, cyl, am)
#> # A tibble: 6 x 3
#> # Groups:   cyl [3]
#>     cyl    am  mean
#>   <dbl> <dbl> <dbl>
#> 1     4     0 136. 
#> 2     4     1  93.6
#> 3     6     0 205. 
#> 4     6     1 155  
#> 5     8     0 358. 
#> # … with 1 more row
…
  summary_vars <- purrr::map(summary_vars, function(var) {
    expr(mean(!!var, na.rm = TRUE))
  })

  data %>%
    group_by(!!!group_vars) %>%
    summarise(n = n(), !!!summary_vars)
}

grouped_mean3(starwars, vars(species, gender), vars(height))
#> # A tibble: 43 x 4
#> # Groups:   species [38]
#>   species  gender     n `mean(height, na.rm = TRUE)`
#>   <chr>    <chr>  <int>                        <dbl>
#> 1 <NA>     female     3                          137
#> 2 <NA>     male       2                          183
#> 3 Aleena   male       1                           79
#> 4 Besalisk male       1                          198
#> 5 Cerean   male       1                          198
#> # … with 38 more rows
…
grouped_mean2 <- function(.data, .summary_var, ...) {
  summary_var <- enquo(.summary_var)
  group_vars <- enquos(..., .named = TRUE)  # Ensure quoted dots are named

  # Prefix the names of the list of quoted dots
  names(group_vars) <- paste0("group_", names(group_vars))

  .data %>%
    group_by(!!!group_vars) %>%  # Unquote-splice the list
    summarise(mean = mean(!!summary_var))
}

grouped_mean2(mtcars, disp, cyl, am)
#> # A tibble: 6 x 3
#> # Groups:   group_cyl [3]
#>   group_cyl group_am  mean
#>       <dbl>    <dbl> <dbl>
#> 1         4        0 136. 
#> 2         4        1  93.6
#> 3         6        0 205. 
#> 4         6        1 155  
#> 5         8        0 358. 
#> # … with 1 more row

One big downside of this technique is that all arguments get a prefix, including the arguments that were given specific names by the user:

grouped_mean2(mtcars, disp, c = cyl, a = am)
#> # A tibble: 6 x 3
#> # Groups:   group_c [3]
#>   group_c group_a  mean
#>     <dbl>   <dbl> <dbl>
#> 1       4       0 136. 
#> 2       4       1  93.6
#> 3       6       0 205. 
#> 4       6       1 155  
#> 5       8       0 358. 
#> # … with 1 more row
…
