6 Modifying inputs | Tidy evaluation
…
grouped_mean2 <- function(.data, .summary_var, ...) {
  summary_var <- enquo(.summary_var)
  group_vars <- enquos(...)

  # Get and modify the default name
  summary_nm <- quo_name(summary_var)
  summary_nm <- paste0("avg_", summary_nm)

  .data %>%
    group_by(!!!group_vars) %>%
    summarise(!!summary_nm := mean(!!summary_var))  # Unquote the name
}

grouped_mean2(mtcars, disp, cyl, am)
#> # A tibble: 6 x 3
#> # Groups:   cyl [3]
#>     cyl    am avg_disp
#>   <dbl> <dbl>    <dbl>
#> 1     4     0    136. 
#> 2     4     1     93.6
#> 3     6     0    205. 
#> 4     6     1    155  
#> 5     8     0    358. 
#> # … with 1 more row
…
  summary_nm <- quo_name(summary_var)
  summary_nm <- paste0("avg_", summary_nm)

  # Modify the names of the list of quoted dots
  names(group_vars) <- paste0("groups_", names(group_vars))

  .data %>%
    group_by(!!!group_vars) %>%  # Unquote-splice as usual
    summarise(!!summary_nm := mean(!!summary_var))
}

grouped_mean2(mtcars, disp, cyl, am)
#> # A tibble: 6 x 3
#> # Groups:   groups_cyl [3]
#>   groups_cyl groups_am avg_disp
#>        <dbl>     <dbl>    <dbl>
#> 1          4         0    136. 
#> 2          4         1     93.6
#> 3          6         0    205. 
#> 4          6         1    155  
#> 5          8         0    358. 
#> # … with 1 more row
…
  # Wrap the summary variables with mean()
  summary_vars <- purrr::map(summary_vars, function(var) {
    expr(mean(!!var, na.rm = TRUE))
  })

  # Prefix the names with `avg_`
  names(summary_vars) <- paste0("avg_", names(summary_vars))

  .data %>%
    group_by(!!group_var) %>%
    summarise(!!!summary_vars)
}

grouped_mean3(starwars, species, height)
#> # A tibble: 38 x 2
#>   species  avg_height
#>   <chr>         <dbl>
#> 1 <NA>            160
#> 2 Aleena           79
#> 3 Besalisk        198
#> 4 Cerean          198
#> 5 Chagrian        196
#> # … with 33 more rows

grouped_mean3(starwars, species, height, mass)
#> # A tibble: 38 x 3
#>   species  avg_height avg_mass
#>   <chr>         <dbl>    <dbl>
#> 1 <NA>            160       48
#> 2 Aleena           79       15
#> 3 Besalisk        198      102
#> 4 Cerean          198       82
#> 5 Chagrian        196      NaN
#> # … with 33 more rows
