5 Dealing with multiple arguments | Tidy evaluation
…
It is good practice to make one final adjustment. Because arguments in ... can have arbitrary names, we don’t want to “use up” valid names. In tidyverse packages we use the convention of prefixing named arguments with a dot so that conflicts are less likely:

grouped_mean <- function(.data, .summary_var, ...) {
  .summary_var <- enquo(.summary_var)

  .data %>%
    group_by(...) %>%
    summarise(mean = mean(!!.summary_var))
}

Let’s check this function now works with any number of grouping variables:

grouped_mean(mtcars, disp, cyl, am)
#> # A tibble: 6 x 3
#> # Groups:   cyl [3]
#>     cyl    am  mean
#>   <dbl> <dbl> <dbl>
#> 1     4     0 136. 
#> 2     4     1  93.6
#> 3     6     0 205. 
#> 4     6     1 155  
#> 5     8     0 358. 
#> # … with 1 more row

grouped_mean(mtcars, disp, cyl, am, vs)
#> # A tibble: 7 x 4
#> # Groups:   cyl, am [6]
#>     cyl    am    vs  mean
#>   <dbl> <dbl> <dbl> <dbl>
#> 1     4     0     1 136. 
#> 2     4     1     0 120. 
#> 3     4     1     1  89.8
#> 4     6     0     1 205. 
#> 5     6     1     0 155  
#> # … with 2 more rows
…
When we use the unquote operator !!, group_by() gets a list of expressions. When we unquote-splice with !!!, the expressions are forwarded as individual arguments to group_by(). Let’s use the latter to fix grouped_mean2():

grouped_mean2 <- function(.data, .summary_var, ...) {
  summary_var <- enquo(.summary_var)
  group_vars <- enquos(...)

  .data %>%
    group_by(!!!group_vars) %>%
    summarise(mean = mean(!!summary_var))
}

The quote and unquote version of grouped_mean() does a bit more work but is functionally identical to the forwarding version:

grouped_mean(mtcars, disp, cyl, am)
#> # A tibble: 6 x 3
#> # Groups:   cyl [3]
#>     cyl    am  mean
#>   <dbl> <dbl> <dbl>
#> 1     4     0 136. 
#> 2     4     1  93.6
#> 3     6     0 205. 
#> 4     6     1 155  
#> 5     8     0 358. 
#> # … with 1 more row

grouped_mean2(mtcars, disp, cyl, am)
#> # A tibble: 6 x 3
#> # Groups:   cyl [3]
#>     cyl    am  mean
#>   <dbl> <dbl> <dbl>
#> 1     4     0 136. 
#> 2     4     1  93.6
#> 3     6     0 205. 
#> 4     6     1 155  
#> 5     8     0 358. 
#> # … with 1 more row
…
